Proyecto2/uP_tb.vcd
$date
	Fri Nov 20 18:31:10 2020
$end
$version
	Icarus Verilog
$end
$timescale
	1s
$end
$scope module testbench $end
$var wire 4 ! data_bus [3:0] $end
$var wire 1 " z_flag $end
$var wire 8 # program_byte [7:0] $end
$var wire 1 $ phase $end
$var wire 4 % oprnd [3:0] $end
$var wire 4 & instr [3:0] $end
$var wire 1 ' c_flag $end
$var wire 12 ( address_RAM [11:0] $end
$var wire 4 ) accu [3:0] $end
$var wire 12 * PC [11:0] $end
$var wire 4 + FF_out [3:0] $end
$var reg 1 , clock $end
$var reg 4 - pushbuttons [3:0] $end
$var reg 1 . reset $end
$var integer 32 / immediateDelay [31:0] $end
$var integer 32 0 jumpDelay [31:0] $end
$var integer 32 1 memoryDelay [31:0] $end
$var integer 32 2 nota [31:0] $end
$scope module uPmodule $end
$var wire 1 , clock $end
$var wire 4 3 data_bus [3:0] $end
$var wire 4 4 pushbuttons [3:0] $end
$var wire 1 . reset $end
$var wire 1 " z_flag $end
$var wire 1 5 z_bandera $end
$var wire 1 6 weRAM $end
$var wire 8 7 program_byte [7:0] $end
$var wire 1 $ phase $end
$var wire 4 8 out_ALU [3:0] $end
$var wire 4 9 oprnd [3:0] $end
$var wire 1 : oeOprnd $end
$var wire 1 ; oeIN $end
$var wire 1 < oeALU $end
$var wire 1 = loadPC $end
$var wire 1 > loadOut $end
$var wire 1 ? loadFlags $end
$var wire 1 @ loadA $end
$var wire 4 A instr [3:0] $end
$var wire 1 B incPC $end
$var wire 1 C csRAM $end
$var wire 1 ' c_flag $end
$var wire 1 D c_bandera $end
$var wire 12 E address_RAM [11:0] $end
$var wire 4 F accu [3:0] $end
$var wire 3 G S [2:0] $end
$var wire 12 H PC [11:0] $end
$var wire 4 I FF_out [3:0] $end
$scope module B1 $end
$var wire 1 : enable $end
$var wire 4 J out [3:0] $end
$var wire 4 K in [3:0] $end
$upscope $end
$scope module B2 $end
$var wire 1 < enable $end
$var wire 4 L out [3:0] $end
$var wire 4 M in [3:0] $end
$upscope $end
$scope module IN $end
$var wire 1 ; enable $end
$var wire 4 N in [3:0] $end
$var wire 4 O out [3:0] $end
$upscope $end
$scope module OUT $end
$var wire 4 P D [3:0] $end
$var wire 1 , clock $end
$var wire 1 > en $end
$var wire 1 . reset $end
$var reg 4 Q Q [3:0] $end
$upscope $end
$scope module ProgramC $end
$var wire 1 , clock $end
$var wire 1 B en $end
$var wire 1 = load $end
$var wire 12 R load_1 [11:0] $end
$var wire 1 . reset $end
$var reg 12 S count [11:0] $end
$upscope $end
$scope module accumulador $end
$var wire 1 , clock $end
$var wire 1 @ en $end
$var wire 1 . reset $end
$var wire 4 T D [3:0] $end
$var reg 4 U Q [3:0] $end
$upscope $end
$scope module alu $end
$var wire 4 V A [3:0] $end
$var wire 4 W B [3:0] $end
$var wire 3 X s [2:0] $end
$var wire 1 5 Zero $end
$var reg 1 D C $end
$var reg 4 Y OUT [3:0] $end
$upscope $end
$scope module decode $end
$var wire 7 Z INPUT [6:0] $end
$var reg 13 [ OUTPUT [12:0] $end
$upscope $end
$scope module fetch $end
$var wire 1 , clock $end
$var wire 1 \ en $end
$var wire 1 . reset $end
$var wire 8 ] D [7:0] $end
$var reg 4 ^ instr [3:0] $end
$var reg 4 _ operand [3:0] $end
$upscope $end
$scope module flags $end
$var wire 2 ` D [1:0] $end
$var wire 1 , clock $end
$var wire 1 ? en $end
$var wire 1 . reset $end
$var reg 2 a Q [1:0] $end
$upscope $end
$scope module phse $end
$var wire 1 , clock $end
$var wire 1 . reset $end
$var reg 1 $ Q $end
$upscope $end
$scope module ram $end
$var wire 12 b address [11:0] $end
$var wire 1 C cs $end
$var wire 4 c data [3:0] $end
$var wire 1 6 wen $end
$var reg 4 d data_out [3:0] $end
$upscope $end
$scope module rom $end
$var wire 12 e address [11:0] $end
$var wire 8 f palabra [7:0] $end
$upscope $end
$upscope $end
$upscope $end
$enddefinitions $end
#0
$dumpvars
bx f
bx e
bx d
bx c
bx b
bx a
bx `
bx _
bx ^
bx ]
x\
bx [
bx Z
bx Y
bx X
bx W
bx V
bx U
bx T
bx S
bx R
bx Q
bx P
bx O
b110 N
bx M
bx L
bx K
bx J
bx I
bx H
bx G
bx F
bx E
xD
xC
xB
bx A
x@
x?
x>
x=
x<
x;
x:
bx 9
bx 8
bx 7
x6
x5
b110 4
bx 3
b0 2
b100010100 1
b1010010000 0
b10000 /
0.
b110 -
0,
bx +
bx *
bx )
bx (
x'
bx &
bx %
x$
bx #
x"
bx !
$end
#2
b0 !
b0 3
b0 J
b0 L
b0 O
b0 P
b0 W
b0 c
15
0>
0:
0;
1<
06
0C
b0 G
b0 X
0?
0@
0=
1B
b1 `
0D
b0 8
b0 M
b0 T
b0 Y
b1000000001000 [
1\
0"
0'
b0 +
b0 I
b0 Q
b1001111 #
b1001111 7
b1001111 ]
b1001111 f
b0 *
b0 H
b0 S
b0 e
0$
b0 )
b0 F
b0 U
b0 V
b0 Z
b0 &
b0 A
b0 ^
b1001111 (
b1001111 E
b1001111 R
b1001111 b
b0 %
b0 9
b0 K
b0 _
b0 a
1.
#3
0.
#5
b0 `
05
1"
b1111 8
b1111 M
b1111 T
b1111 Y
b1 a
b1111 !
b1111 3
b1111 J
b1111 L
b1111 O
b1111 P
b1111 W
b1111 c
1:
0<
b10 G
b10 X
1?
1@
0B
b11010000010 [
0\
1$
b11011111 #
b11011111 7
b11011111 ]
b11011111 f
b1 *
b1 H
b1 S
b1 e
b100011 Z
b100 &
b100 A
b100 ^
b111111011111 (
b111111011111 E
b111111011111 R
b111111011111 b
b1111 %
b1111 9
b1111 K
b1111 _
1,
#10
0,
#15
0:
1<
b0 G
b0 X
0?
0@
1B
b1101 &
b1101 A
b1101 ^
b1000000001000 [
1\
0"
b1101000 Z
0$
b1111 )
b1111 F
b1111 U
b1111 V
b0 a
1,
#16
b1000110 2
#20
0,
#25
b1111 +
b1111 I
b1111 Q
1>
0B
b1001 [
0\
b1101001 Z
1$
b111101010001 (
b111101010001 E
b111101010001 R
b111101010001 b
b1010001 #
b1010001 7
b1010001 ]
b1010001 f
b10 *
b10 H
b10 S
b10 e
1,
#30
0,
#35
0>
1B
b101 &
b101 A
b101 ^
b101010001 (
b101010001 E
b101010001 R
b101010001 b
b1 %
b1 9
b1 K
b1 _
b1000000001000 [
1\
b101000 Z
0$
1,
#36
b1100111 2
#40
0,
#45
b110 8
b110 M
b110 T
b110 Y
b110 !
b110 3
b110 J
b110 L
b110 O
b110 P
b110 W
b110 c
1;
0<
b10 G
b10 X
1?
1@
0B
b11010000100 [
0\
b101001 Z
1$
b101000000 (
b101000000 E
b101000000 R
b101000000 b
b1000000 #
b1000000 7
b1000000 ]
b1000000 f
b11 *
b11 H
b11 S
b11 e
1,
#50
0,
#55
0;
1<
b0 G
b0 X
0?
0@
1B
b100 &
b100 A
b100 ^
b1000000 (
b1000000 E
b1000000 R
b1000000 b
b0 %
b0 9
b0 K
b0 _
b1000000001000 [
1\
b100000 Z
0$
b110 )
b110 F
b110 U
b110 V
1,
#56
b10001000 2
#60
0,
#65
b1 `
15
b0 8
b0 M
b0 T
b0 Y
b0 !
b0 3
b0 J
b0 L
b0 O
b0 P
b0 W
b0 c
1:
0<
b10 G
b10 X
1?
1@
0B
b11010000010 [
0\
b100001 Z
1$
b1001111 (
b1001111 E
b1001111 R
b1001111 b
b1001111 #
b1001111 7
b1001111 ]
b1001111 f
b100 *
b100 H
b100 S
b100 e
1,
#70
0,
#75
b0 !
b0 3
b0 J
b0 L
b0 O
b0 P
b0 W
b0 c
0:
1<
b0 G
b0 X
0?
0@
1B
b111101001111 (
b111101001111 E
b111101001111 R
b111101001111 b
b1111 %
b1111 9
b1111 K
b1111 _
b1000000001000 [
1\
1"
b100010 Z
0$
b0 )
b0 F
b0 U
b0 V
b1 a
1,
#80
0,
#85
b0 `
05
b1111 8
b1111 M
b1111 T
b1111 Y
b1111 !
b1111 3
b1111 J
b1111 L
b1111 O
b1111 P
b1111 W
b1111 c
1:
0<
b10 G
b10 X
1?
1@
0B
b11010000010 [
0\
b100011 Z
1$
b111110101010 (
b111110101010 E
b111110101010 R
b111110101010 b
b10101010 #
b10101010 7
b10101010 ]
b10101010 f
b101 *
b101 H
b101 S
b101 e
1,
#90
0,
#95
b1111 !
b1111 3
b1111 J
b1111 L
b1111 O
b1111 P
b1111 W
b1111 c
0:
1<
b0 G
b0 X
0?
0@
1B
b1010 &
b1010 A
b1010 ^
b101010101010 (
b101010101010 E
b101010101010 R
b101010101010 b
b1010 %
b1010 9
b1010 K
b1010 _
b1000000001000 [
1\
0"
b1010000 Z
0$
b1111 )
b1111 F
b1111 U
b1111 V
b0 a
1,
#100
0,
#105
b10 `
1D
b1001 8
b1001 M
b1001 T
b1001 Y
b1010 !
b1010 3
b1010 J
b1010 L
b1010 O
b1010 P
b1010 W
b1010 c
1:
0<
b11 G
b11 X
1?
1@
0B
b11011000010 [
0\
b1010001 Z
1$
b101000101000 (
b101000101000 E
b101000101000 R
b101000101000 b
b101000 #
b101000 7
b101000 ]
b101000 f
b110 *
b110 H
b110 S
b110 e
1,
#110
0,
#115
b0 `
0D
b1001 !
b1001 3
b1001 J
b1001 L
b1001 O
b1001 P
b1001 W
b1001 c
0:
1<
b0 G
b0 X
0?
0@
1B
b10 &
b10 A
b10 ^
b100000101000 (
b100000101000 E
b100000101000 R
b100000101000 b
b1000 %
b1000 9
b1000 K
b1000 _
b1000000001000 [
b1001 8
b1001 M
b1001 T
b1001 Y
1\
1'
b10100 Z
0$
b1001 )
b1001 F
b1001 U
b1001 V
b10 a
1,
#116
b10101001 2
#120
0,
#125
0'
b1 8
b1 M
b1 T
b1 Y
b0 a
b1000 !
b1000 3
b1000 J
b1000 L
b1000 O
b1000 P
b1000 W
b1000 c
1:
0<
b1 G
b1 X
1?
0B
b1001000010 [
0\
b10001 Z
1$
b100001001010 (
b100001001010 E
b100001001010 R
b100001001010 b
b1001010 #
b1001010 7
b1001010 ]
b1001010 f
b111 *
b111 H
b111 S
b111 e
1,
#130
0,
#135
b1001 8
b1001 M
b1001 T
b1001 Y
b1001 !
b1001 3
b1001 J
b1001 L
b1001 O
b1001 P
b1001 W
b1001 c
0:
1<
b0 G
b0 X
0?
1B
b100 &
b100 A
b100 ^
b101001001010 (
b101001001010 E
b101001001010 R
b101001001010 b
b1010 %
b1010 9
b1010 K
b1010 _
b1000000001000 [
1\
b100000 Z
0$
1,
#136
b11001010 2
#140
0,
#145
b1010 8
b1010 M
b1010 T
b1010 Y
b1010 !
b1010 3
b1010 J
b1010 L
b1010 O
b1010 P
b1010 W
b1010 c
1:
0<
b10 G
b10 X
1?
1@
0B
b11010000010 [
0\
b100001 Z
1$
b101000101100 (
b101000101100 E
b101000101100 R
b101000101100 b
b101100 #
b101100 7
b101100 ]
b101100 f
b1000 *
b1000 H
b1000 S
b1000 e
1,
#150
0,
#155
b1010 !
b1010 3
b1010 J
b1010 L
b1010 O
b1010 P
b1010 W
b1010 c
0:
1<
b0 G
b0 X
0?
0@
1B
b10 &
b10 A
b10 ^
b110000101100 (
b110000101100 E
b110000101100 R
b110000101100 b
b1100 %
b1100 9
b1100 K
b1100 _
b1000000001000 [
1\
b10000 Z
0$
b1010 )
b1010 F
b1010 U
b1010 V
1,
#160
0,
#165
b10 `
1D
b1110 8
b1110 M
b1110 T
b1110 Y
b1100 !
b1100 3
b1100 J
b1100 L
b1100 O
b1100 P
b1100 W
b1100 c
1:
0<
b1 G
b1 X
1?
0B
b1001000010 [
0\
b10001 Z
1$
b110010100001 (
b110010100001 E
b110010100001 R
b110010100001 b
b10100001 #
b10100001 7
b10100001 ]
b10100001 f
b1001 *
b1001 H
b1001 S
b1001 e
1,
#170
0,
#175
b0 `
0D
b1010 8
b1010 M
b1010 T
b1010 Y
b1010 !
b1010 3
b1010 J
b1010 L
b1010 O
b1010 P
b1010 W
b1010 c
0:
1<
b0 G
b0 X
0?
1B
b1010 &
b1010 A
b1010 ^
b110100001 (
b110100001 E
b110100001 R
b110100001 b
b1 %
b1 9
b1 K
b1 _
b1000000001000 [
1\
1'
b1010100 Z
0$
b10 a
1,
#176
b11101011 2
#180
0,
#185
0'
b0 `
0D
b1011 8
b1011 M
b1011 T
b1011 Y
b0 a
b1 !
b1 3
b1 J
b1 L
b1 O
b1 P
b1 W
b1 c
1:
0<
b11 G
b11 X
1?
1@
0B
b11011000010 [
0\
b1010001 Z
1$
b111101011 (
b111101011 E
b111101011 R
b111101011 b
b11101011 #
b11101011 7
b11101011 ]
b11101011 f
b1010 *
b1010 H
b1010 S
b1010 e
1,
#190
0,
#195
b1011 !
b1011 3
b1011 J
b1011 L
b1011 O
b1011 P
b1011 W
b1011 c
0:
1<
b0 G
b0 X
0?
0@
1B
b1110 &
b1110 A
b1110 ^
b101111101011 (
b101111101011 E
b101111101011 R
b101111101011 b
b1011 %
b1011 9
b1011 K
b1011 _
b1000000001000 [
b1011 8
b1011 M
b1011 T
b1011 Y
1\
b1110000 Z
0$
b1011 )
b1011 F
b1011 U
b1011 V
1,
#196
b100001100 2
#200
0,
#205
b100 8
b100 M
b100 T
b100 Y
b1011 !
b1011 3
b1011 J
b1011 L
b1011 O
b1011 P
b1011 W
b1011 c
1:
0<
b100 G
b100 X
1?
1@
0B
b11100000010 [
0\
b1110001 Z
1$
b101111010000 (
b101111010000 E
b101111010000 R
b101111010000 b
b11010000 #
b11010000 7
b11010000 ]
b11010000 f
b1011 *
b1011 H
b1011 S
b1011 e
1,
#210
0,
#215
b100 !
b100 3
b100 J
b100 L
b100 O
b100 P
b100 W
b100 c
0:
1<
b0 G
b0 X
0?
0@
1B
b1101 &
b1101 A
b1101 ^
b11010000 (
b11010000 E
b11010000 R
b11010000 b
b0 %
b0 9
b0 K
b0 _
b1000000001000 [
b100 8
b100 M
b100 T
b100 Y
1\
b1101000 Z
0$
b100 )
b100 F
b100 U
b100 V
1,
#216
b101001110 2
#220
0,
#225
b100 +
b100 I
b100 Q
1>
0B
b1001 [
0\
b1101001 Z
1$
b1010000 (
b1010000 E
b1010000 R
b1010000 b
b1010000 #
b1010000 7
b1010000 ]
b1010000 f
b1100 *
b1100 H
b1100 S
b1100 e
1,
#230
0,
#235
0>
1B
b101 &
b101 A
b101 ^
b1000000001000 [
1\
b101000 Z
0$
1,
#236
b1110 -
b1110 4
b1110 N
b101101111 2
#240
0,
#245
b1110 8
b1110 M
b1110 T
b1110 Y
b1110 !
b1110 3
b1110 J
b1110 L
b1110 O
b1110 P
b1110 W
b1110 c
1;
0<
b10 G
b10 X
1?
1@
0B
b11010000100 [
0\
b101001 Z
1$
b1110000 (
b1110000 E
b1110000 R
b1110000 b
b1110000 #
b1110000 7
b1110000 ]
b1110000 f
b1101 *
b1101 H
b1101 S
b1101 e
1,
#250
0,
#255
0;
1<
b0 G
b0 X
0?
0@
1B
b111 &
b111 A
b111 ^
b1000000001000 [
1\
b111000 Z
0$
b1110 )
b1110 F
b1110 U
b1110 V
1,
#256
b110010000 2
#260
0,
#265
16
1C
b1000000111000 [
0\
b111001 Z
1$
b0 (
b0 E
b0 R
b0 b
b0 #
b0 7
b0 ]
b0 f
b1110 *
b1110 H
b1110 S
b1110 e
1,
#270
0,
#275
06
0C
b100 &
b100 A
b100 ^
b1111 %
b1111 9
b1111 K
b1111 _
b1000000001000 [
1\
b111101001111 (
b111101001111 E
b111101001111 R
b111101001111 b
b1001111 #
b1001111 7
b1001111 ]
b1001111 f
b1111 *
b1111 H
b1111 S
b1111 e
b100000 Z
0$
1,
#280
0,
#285
b1111 8
b1111 M
b1111 T
b1111 Y
b1111 !
b1111 3
b1111 J
b1111 L
b1111 O
b1111 P
b1111 W
b1111 c
1:
0<
b10 G
b10 X
1?
1@
0B
b11010000010 [
0\
b100001 Z
1$
b111101110001 (
b111101110001 E
b111101110001 R
b111101110001 b
b1110001 #
b1110001 7
b1110001 ]
b1110001 f
b10000 *
b10000 H
b10000 S
b10000 e
1,
#290
0,
#295
b1111 !
b1111 3
b1111 J
b1111 L
b1111 O
b1111 P
b1111 W
b1111 c
0:
1<
b0 G
b0 X
0?
0@
1B
b111 &
b111 A
b111 ^
b101110001 (
b101110001 E
b101110001 R
b101110001 b
b1 %
b1 9
b1 K
b1 _
b1000000001000 [
1\
b111000 Z
0$
b1111 )
b1111 F
b1111 U
b1111 V
1,
#300
0,
#305
16
1C
b1000000111000 [
0\
b111001 Z
1$
b100010001 (
b100010001 E
b100010001 R
b100010001 b
b10001 #
b10001 7
b10001 ]
b10001 f
b10001 *
b10001 H
b10001 S
b10001 e
1,
#310
0,
#315
06
0C
b100 &
b100 A
b100 ^
b1010 %
b1010 9
b1010 K
b1010 _
b1000000001000 [
1\
b101001001010 (
b101001001010 E
b101001001010 R
b101001001010 b
b1001010 #
b1001010 7
b1001010 ]
b1001010 f
b10010 *
b10010 H
b10010 S
b10010 e
b100000 Z
0$
1,
#320
0,
#325
b1010 8
b1010 M
b1010 T
b1010 Y
b1010 !
b1010 3
b1010 J
b1010 L
b1010 O
b1010 P
b1010 W
b1010 c
1:
0<
b10 G
b10 X
1?
1@
0B
b11010000010 [
0\
b100001 Z
1$
b101001110010 (
b101001110010 E
b101001110010 R
b101001110010 b
b1110010 #
b1110010 7
b1110010 ]
b1110010 f
b10011 *
b10011 H
b10011 S
b10011 e
1,
#330
0,
#335
b1010 !
b1010 3
b1010 J
b1010 L
b1010 O
b1010 P
b1010 W
b1010 c
0:
1<
b0 G
b0 X
0?
0@
1B
b111 &
b111 A
b111 ^
b1001110010 (
b1001110010 E
b1001110010 R
b1001110010 b
b10 %
b10 9
b10 K
b10 _
b1000000001000 [
1\
b111000 Z
0$
b1010 )
b1010 F
b1010 U
b1010 V
1,
#340
0,
#345
16
1C
b1000000111000 [
0\
b111001 Z
1$
b1000100010 (
b1000100010 E
b1000100010 R
b1000100010 b
b100010 #
b100010 7
b100010 ]
b100010 f
b10100 *
b10100 H
b10100 S
b10100 e
1,
#350
0,
#355
06
0C
b100 &
b100 A
b100 ^
b1 %
b1 9
b1 K
b1 _
b1000000001000 [
1\
b101000001 (
b101000001 E
b101000001 R
b101000001 b
b1000001 #
b1000001 7
b1000001 ]
b1000001 f
b10101 *
b10101 H
b10101 S
b10101 e
b100000 Z
0$
1,
#360
0,
#365
b1 8
b1 M
b1 T
b1 Y
b1 !
b1 3
b1 J
b1 L
b1 O
b1 P
b1 W
b1 c
1:
0<
b10 G
b10 X
1?
1@
0B
b11010000010 [
0\
b100001 Z
1$
b101110011 (
b101110011 E
b101110011 R
b101110011 b
b1110011 #
b1110011 7
b1110011 ]
b1110011 f
b10110 *
b10110 H
b10110 S
b10110 e
1,
#370
0,
#375
b1 !
b1 3
b1 J
b1 L
b1 O
b1 P
b1 W
b1 c
0:
1<
b0 G
b0 X
0?
0@
1B
b111 &
b111 A
b111 ^
b1101110011 (
b1101110011 E
b1101110011 R
b1101110011 b
b11 %
b11 9
b11 K
b11 _
b1000000001000 [
1\
b111000 Z
0$
b1 )
b1 F
b1 U
b1 V
1,
#380
0,
#385
16
1C
b1000000111000 [
0\
b111001 Z
1$
b1100110011 (
b1100110011 E
b1100110011 R
b1100110011 b
b110011 #
b110011 7
b110011 ]
b110011 f
b10111 *
b10111 H
b10111 S
b10111 e
1,
#390
0,
#395
06
0C
b110 &
b110 A
b110 ^
b0 %
b0 9
b0 K
b0 _
b1000000001000 [
1\
b1100000 (
b1100000 E
b1100000 R
b1100000 b
b1100000 #
b1100000 7
b1100000 ]
b1100000 f
b11000 *
b11000 H
b11000 S
b11000 e
b110000 Z
0$
1,
#400
0,
#405
b1110 8
b1110 M
b1110 T
b1110 Y
b1110 !
b1110 3
b1110 J
b1110 L
b1110 O
b1110 P
b1110 W
b1110 c
b1110 d
0<
1C
b10 G
b10 X
1?
1@
b1011010100000 [
0\
b110001 Z
1$
b0 (
b0 E
b0 R
b0 b
b0 #
b0 7
b0 ]
b0 f
b11001 *
b11001 H
b11001 S
b11001 e
1,
#410
0,
#415
b0 `
05
1<
0C
b0 G
b0 X
0?
0@
b1110 8
b1110 M
b1110 T
b1110 Y
b1 %
b1 9
b1 K
b1 _
b1000000001000 [
b1110 !
b1110 3
b1110 J
b1110 L
b1110 O
b1110 P
b1110 W
b1110 c
bx d
1\
b101100001 (
b101100001 E
b101100001 R
b101100001 b
b1100001 #
b1100001 7
b1100001 ]
b1100001 f
b11010 *
b11010 H
b11010 S
b11010 e
b110000 Z
0$
b1110 )
b1110 F
b1110 U
b1110 V
1,
#420
0,
#425
b1111 8
b1111 M
b1111 T
b1111 Y
b1111 !
b1111 3
b1111 J
b1111 L
b1111 O
b1111 P
b1111 W
b1111 c
b1111 d
0<
1C
b10 G
b10 X
1?
1@
b1011010100000 [
0\
b110001 Z
1$
b100010001 (
b100010001 E
b100010001 R
b100010001 b
b10001 #
b10001 7
b10001 ]
b10001 f
b11011 *
b11011 H
b11011 S
b11011 e
1,
#430
0,
#435
b0 `
05
1<
0C
b0 G
b0 X
0?
0@
b1111 8
b1111 M
b1111 T
b1111 Y
b10 %
b10 9
b10 K
b10 _
b1000000001000 [
b1111 !
b1111 3
b1111 J
b1111 L
b1111 O
b1111 P
b1111 W
b1111 c
bx d
1\
b1001100010 (
b1001100010 E
b1001100010 R
b1001100010 b
b1100010 #
b1100010 7
b1100010 ]
b1100010 f
b11100 *
b11100 H
b11100 S
b11100 e
b110000 Z
0$
b1111 )
b1111 F
b1111 U
b1111 V
1,
#440
0,
#445
b1010 8
b1010 M
b1010 T
b1010 Y
b1010 !
b1010 3
b1010 J
b1010 L
b1010 O
b1010 P
b1010 W
b1010 c
b1010 d
0<
1C
b10 G
b10 X
1?
1@
b1011010100000 [
0\
b110001 Z
1$
b1000100010 (
b1000100010 E
b1000100010 R
b1000100010 b
b100010 #
b100010 7
b100010 ]
b100010 f
b11101 *
b11101 H
b11101 S
b11101 e
1,
#450
0,
#455
b0 `
05
1<
0C
b0 G
b0 X
0?
0@
b1010 8
b1010 M
b1010 T
b1010 Y
b11 %
b11 9
b11 K
b11 _
b1000000001000 [
b1010 !
b1010 3
b1010 J
b1010 L
b1010 O
b1010 P
b1010 W
b1010 c
bx d
1\
b1101100011 (
b1101100011 E
b1101100011 R
b1101100011 b
b1100011 #
b1100011 7
b1100011 ]
b1100011 f
b11110 *
b11110 H
b11110 S
b11110 e
b110000 Z
0$
b1010 )
b1010 F
b1010 U
b1010 V
1,
#460
0,
#465
b1 8
b1 M
b1 T
b1 Y
b1 !
b1 3
b1 J
b1 L
b1 O
b1 P
b1 W
b1 c
b1 d
0<
1C
b10 G
b10 X
1?
1@
b1011010100000 [
0\
b110001 Z
1$
b1100110011 (
b1100110011 E
b1100110011 R
b1100110011 b
b110011 #
b110011 7
b110011 ]
b110011 f
b11111 *
b11111 H
b11111 S
b11111 e
1,
#470
0,
#475
b0 `
05
1<
0C
b0 G
b0 X
0?
0@
b1 8
b1 M
b1 T
b1 Y
b100 &
b100 A
b100 ^
b1010 %
b1010 9
b1010 K
b1010 _
b1000000001000 [
b1 !
b1 3
b1 J
b1 L
b1 O
b1 P
b1 W
b1 c
bx d
1\
b101001001010 (
b101001001010 E
b101001001010 R
b101001001010 b
b1001010 #
b1001010 7
b1001010 ]
b1001010 f
b100000 *
b100000 H
b100000 S
b100000 e
b100000 Z
0$
b1 )
b1 F
b1 U
b1 V
1,
#476
b111100000 2
#480
0,
#485
b1010 8
b1010 M
b1010 T
b1010 Y
b1010 !
b1010 3
b1010 J
b1010 L
b1010 O
b1010 P
b1010 W
b1010 c
1:
0<
b10 G
b10 X
1?
1@
0B
b11010000010 [
0\
b100001 Z
1$
b101011110010 (
b101011110010 E
b101011110010 R
b101011110010 b
b11110010 #
b11110010 7
b11110010 ]
b11110010 f
b100001 *
b100001 H
b100001 S
b100001 e
1,
#490
0,
#495
b1010 !
b1010 3
b1010 J
b1010 L
b1010 O
b1010 P
b1010 W
b1010 c
0:
1<
b0 G
b0 X
0?
0@
1B
b1111 &
b1111 A
b1111 ^
b1011110010 (
b1011110010 E
b1011110010 R
b1011110010 b
b10 %
b10 9
b10 K
b10 _
b1000000001000 [
1\
b1111000 Z
0$
b1010 )
b1010 F
b1010 U
b1010 V
1,
#500
0,
#505
b101 8
b101 M
b101 T
b101 Y
b1010 !
b1010 3
b1010 J
b1010 L
b1010 O
b1010 P
b1010 W
b1010 c
b1010 d
0<
1C
b100 G
b100 X
1?
1@
b1011100100000 [
0\
b1111001 Z
1$
b1000100010 (
b1000100010 E
b1000100010 R
b1000100010 b
b100010 #
b100010 7
b100010 ]
b100010 f
b100010 *
b100010 H
b100010 S
b100010 e
1,
#510
0,
#515
1<
0C
b0 G
b0 X
0?
0@
b100 &
b100 A
b100 ^
b1111 %
b1111 9
b1111 K
b1111 _
b1000000001000 [
b101 8
b101 M
b101 T
b101 Y
b101 !
b101 3
b101 J
b101 L
b101 O
b101 P
b101 W
b101 c
bx d
1\
b111101001111 (
b111101001111 E
b111101001111 R
b111101001111 b
b1001111 #
b1001111 7
b1001111 ]
b1001111 f
b100011 *
b100011 H
b100011 S
b100011 e
b100000 Z
0$
b101 )
b101 F
b101 U
b101 V
1,
#516
b1000001000 2
#520
0,
#525
b1111 8
b1111 M
b1111 T
b1111 Y
b1111 !
b1111 3
b1111 J
b1111 L
b1111 O
b1111 P
b1111 W
b1111 c
1:
0<
b10 G
b10 X
1?
1@
0B
b11010000010 [
0\
b100001 Z
1$
b111110110011 (
b111110110011 E
b111110110011 R
b111110110011 b
b10110011 #
b10110011 7
b10110011 ]
b10110011 f
b100100 *
b100100 H
b100100 S
b100100 e
1,
#530
0,
#535
b1111 !
b1111 3
b1111 J
b1111 L
b1111 O
b1111 P
b1111 W
b1111 c
0:
1<
b0 G
b0 X
0?
0@
1B
b1011 &
b1011 A
b1011 ^
b1110110011 (
b1110110011 E
b1110110011 R
b1110110011 b
b11 %
b11 9
b11 K
b11 _
b1000000001000 [
1\
b1011000 Z
0$
b1111 )
b1111 F
b1111 U
b1111 V
1,
#540
0,
#545
15
b11 `
1D
b0 8
b0 M
b0 T
b0 Y
b1 !
b1 3
b1 J
b1 L
b1 O
b1 P
b1 W
b1 c
b1 d
0<
1C
b11 G
b11 X
1?
1@
b1011011100000 [
0\
b1011001 Z
1$
b1100110011 (
b1100110011 E
b1100110011 R
b1100110011 b
b110011 #
b110011 7
b110011 ]
b110011 f
b100101 *
b100101 H
b100101 S
b100101 e
1,
#550
0,
#555
1<
0C
b0 G
b0 X
0?
0@
15
b100 &
b100 A
b100 ^
b1000 %
b1000 9
b1000 K
b1000 _
b1000000001000 [
b1 `
0D
b0 8
b0 M
b0 T
b0 Y
b0 !
b0 3
b0 J
b0 L
b0 O
b0 P
b0 W
b0 c
bx d
1\
1"
1'
b100001001000 (
b100001001000 E
b100001001000 R
b100001001000 b
b1001000 #
b1001000 7
b1001000 ]
b1001000 f
b100110 *
b100110 H
b100110 S
b100110 e
b100110 Z
0$
b0 )
b0 F
b0 U
b0 V
b11 a
1,
#556
b1000110000 2
#560
0,
#565
b0 `
05
0'
b1000 8
b1000 M
b1000 T
b1000 Y
b1 a
b1000 !
b1000 3
b1000 J
b1000 L
b1000 O
b1000 P
b1000 W
b1000 c
1:
0<
b10 G
b10 X
1?
1@
0B
b11010000010 [
0\
b100011 Z
1$
b100000110010 (
b100000110010 E
b100000110010 R
b100000110010 b
b110010 #
b110010 7
b110010 ]
b110010 f
b100111 *
b100111 H
b100111 S
b100111 e
1,
#570
0,
#575
b1000 !
b1000 3
b1000 J
b1000 L
b1000 O
b1000 P
b1000 W
b1000 c
0:
1<
b0 G
b0 X
0?
0@
1B
b11 &
b11 A
b11 ^
b1000110010 (
b1000110010 E
b1000110010 R
b1000110010 b
b10 %
b10 9
b10 K
b10 _
b1000000001000 [
1\
0"
b11000 Z
0$
b1000 )
b1000 F
b1000 U
b1000 V
b0 a
1,
#580
0,
#585
b10 `
1D
b1110 8
b1110 M
b1110 T
b1110 Y
b1010 !
b1010 3
b1010 J
b1010 L
b1010 O
b1010 P
b1010 W
b1010 c
b1010 d
0<
1C
b1 G
b1 X
1?
b1001001100000 [
0\
b11001 Z
1$
b1000100010 (
b1000100010 E
b1000100010 R
b1000100010 b
b100010 #
b100010 7
b100010 ]
b100010 f
b101000 *
b101000 H
b101000 S
b101000 e
1,
#590
0,
#595
05
1<
0C
b0 G
b0 X
0?
b0 `
0D
b1000 8
b1000 M
b1000 T
b1000 Y
b100 &
b100 A
b100 ^
b1100 %
b1100 9
b1100 K
b1100 _
b1000000001000 [
b1000 !
b1000 3
b1000 J
b1000 L
b1000 O
b1000 P
b1000 W
b1000 c
bx d
1\
1'
b110001001100 (
b110001001100 E
b110001001100 R
b110001001100 b
b1001100 #
b1001100 7
b1001100 ]
b1001100 f
b101001 *
b101001 H
b101001 S
b101001 e
b100100 Z
0$
b10 a
1,
#596
b1001000100 2
#600
0,
#605
0'
b1100 8
b1100 M
b1100 T
b1100 Y
b0 a
b1100 !
b1100 3
b1100 J
b1100 L
b1100 O
b1100 P
b1100 W
b1100 c
1:
0<
b10 G
b10 X
1?
1@
0B
b11010000010 [
0\
b100001 Z
1$
b110000110010 (
b110000110010 E
b110000110010 R
b110000110010 b
b110010 #
b110010 7
b110010 ]
b110010 f
b101010 *
b101010 H
b101010 S
b101010 e
1,
#610
0,
